%YAML 1.1
%TAG !u! tag:unity3d.com,2011:
--- !u!1045 &1
EditorBuildSettings:
  m_ObjectHideFlags: 0
  serializedVersion: 2
  m_Scenes:
  - enabled: 1
    path: Assets/Scenes/Main room.unity
    guid: 9fc0d4010bbf28b4594072e72b8655ab
  - enabled: 1
    path: Assets/Scenes/Main room kitchen.unity
    guid: 80ca2e63a9e72434c9085e0ca4005138
  - enabled: 1
    path: Assets/Scenes/Bedroom.unity
    guid: 7d0ccb20aed522b4dbdee1cd811934eb
  - enabled: 1
    path: Assets/Scenes/Bathroom.unity
    guid: 5a5a80ca85b5b364e8eaf03e97279c2d
  m_configObjects: {}
